{
	"artifacts" : 
	[
		{
			"path" : "linearSystem.exe"
		},
		{
			"path" : "linearSystem.pdb"
		}
	],
	"backtrace" : 1,
	"backtraceGraph" : 
	{
		"commands" : 
		[
			"add_executable",
			"include_directories"
		],
		"files" : 
		[
			"CMakeLists.txt"
		],
		"nodes" : 
		[
			{
				"file" : 0
			},
			{
				"command" : 0,
				"file" : 0,
				"line" : 14,
				"parent" : 0
			},
			{
				"command" : 1,
				"file" : 0,
				"line" : 11,
				"parent" : 0
			}
		]
	},
	"compileGroups" : 
	[
		{
			"compileCommandFragments" : 
			[
				{
					"fragment" : "-g"
				},
				{
					"fragment" : "-std=gnu++11"
				}
			],
			"includes" : 
			[
				{
					"backtrace" : 2,
					"isSystem" : true,
					"path" : "C:/Users/camil/Desktop/Programmazione e calcolo scientifico/exercise/exercises/1_c++_python_advanced/Exercise_2/C++/eigen/include"
				}
			],
			"language" : "CXX",
			"sourceIndexes" : 
			[
				0
			],
			"sysroot" : 
			{
				"path" : "C:/Qt/Tools/mingw810_64"
			}
		}
	],
	"id" : "linearSystem::@6890427a1f51a3e7e1df",
	"link" : 
	{
		"commandFragments" : 
		[
			{
				"fragment" : "-g",
				"role" : "flags"
			},
			{
				"fragment" : "",
				"role" : "flags"
			},
			{
				"fragment" : "-lkernel32 -luser32 -lgdi32 -lwinspool -lshell32 -lole32 -loleaut32 -luuid -lcomdlg32 -ladvapi32",
				"role" : "libraries"
			}
		],
		"language" : "CXX",
		"sysroot" : 
		{
			"path" : "C:/Qt/Tools/mingw810_64"
		}
	},
	"name" : "linearSystem",
	"nameOnDisk" : "linearSystem.exe",
	"paths" : 
	{
		"build" : ".",
		"source" : "."
	},
	"sourceGroups" : 
	[
		{
			"name" : "Source Files",
			"sourceIndexes" : 
			[
				0
			]
		}
	],
	"sources" : 
	[
		{
			"backtrace" : 1,
			"compileGroupIndex" : 0,
			"path" : "main.cpp",
			"sourceGroupIndex" : 0
		}
	],
	"type" : "EXECUTABLE"
}
