{
	"inputs" : 
	[
		{
			"path" : "CMakeLists.txt"
		},
		{
			"path" : "CMakeFiles/3.18.3/CMakeSystem.cmake"
		},
		{
			"isCMake" : true,
			"isExternal" : true,
			"path" : "C:/Qt/Tools/CMake_64/share/cmake-3.18/Modules/CMakeSystemSpecificInitialize.cmake"
		},
		{
			"path" : "CMakeFiles/3.18.3/CMakeCXXCompiler.cmake"
		},
		{
			"isCMake" : true,
			"isExternal" : true,
			"path" : "C:/Qt/Tools/CMake_64/share/cmake-3.18/Modules/CMakeSystemSpecificInformation.cmake"
		},
		{
			"isCMake" : true,
			"isExternal" : true,
			"path" : "C:/Qt/Tools/CMake_64/share/cmake-3.18/Modules/CMakeGenericSystem.cmake"
		},
		{
			"isCMake" : true,
			"isExternal" : true,
			"path" : "C:/Qt/Tools/CMake_64/share/cmake-3.18/Modules/CMakeInitializeConfigs.cmake"
		},
		{
			"isCMake" : true,
			"isExternal" : true,
			"path" : "C:/Qt/Tools/CMake_64/share/cmake-3.18/Modules/Platform/Windows.cmake"
		},
		{
			"isCMake" : true,
			"isExternal" : true,
			"path" : "C:/Qt/Tools/CMake_64/share/cmake-3.18/Modules/Platform/WindowsPaths.cmake"
		},
		{
			"isCMake" : true,
			"isExternal" : true,
			"path" : "C:/Qt/Tools/CMake_64/share/cmake-3.18/Modules/CMakeCXXInformation.cmake"
		},
		{
			"isCMake" : true,
			"isExternal" : true,
			"path" : "C:/Qt/Tools/CMake_64/share/cmake-3.18/Modules/CMakeLanguageInformation.cmake"
		},
		{
			"isCMake" : true,
			"isExternal" : true,
			"path" : "C:/Qt/Tools/CMake_64/share/cmake-3.18/Modules/Compiler/GNU-CXX.cmake"
		},
		{
			"isCMake" : true,
			"isExternal" : true,
			"path" : "C:/Qt/Tools/CMake_64/share/cmake-3.18/Modules/Compiler/GNU.cmake"
		},
		{
			"isCMake" : true,
			"isExternal" : true,
			"path" : "C:/Qt/Tools/CMake_64/share/cmake-3.18/Modules/Compiler/CMakeCommonCompilerMacros.cmake"
		},
		{
			"isCMake" : true,
			"isExternal" : true,
			"path" : "C:/Qt/Tools/CMake_64/share/cmake-3.18/Modules/Internal/CMakeCheckCompilerFlag.cmake"
		},
		{
			"isCMake" : true,
			"isExternal" : true,
			"path" : "C:/Qt/Tools/CMake_64/share/cmake-3.18/Modules/CMakeCheckCompilerFlagCommonPatterns.cmake"
		},
		{
			"isCMake" : true,
			"isExternal" : true,
			"path" : "C:/Qt/Tools/CMake_64/share/cmake-3.18/Modules/Platform/Windows-GNU-CXX.cmake"
		},
		{
			"isCMake" : true,
			"isExternal" : true,
			"path" : "C:/Qt/Tools/CMake_64/share/cmake-3.18/Modules/Platform/Windows-GNU.cmake"
		},
		{
			"path" : "CMakeFiles/3.18.3/CMakeRCCompiler.cmake"
		},
		{
			"isCMake" : true,
			"isExternal" : true,
			"path" : "C:/Qt/Tools/CMake_64/share/cmake-3.18/Modules/CMakeRCInformation.cmake"
		},
		{
			"isCMake" : true,
			"isExternal" : true,
			"path" : "C:/Qt/Tools/CMake_64/share/cmake-3.18/Modules/Platform/Windows-windres.cmake"
		},
		{
			"isCMake" : true,
			"isExternal" : true,
			"path" : "C:/Qt/Tools/CMake_64/share/cmake-3.18/Modules/Platform/Windows-GNU-CXX-ABI.cmake"
		},
		{
			"isCMake" : true,
			"isExternal" : true,
			"path" : "C:/Qt/Tools/CMake_64/share/cmake-3.18/Modules/CMakeCommonLanguageInclude.cmake"
		},
		{
			"isCMake" : true,
			"isExternal" : true,
			"path" : "C:/Qt/Tools/CMake_64/share/cmake-3.18/Modules/FindThreads.cmake"
		},
		{
			"isCMake" : true,
			"isExternal" : true,
			"path" : "C:/Qt/Tools/CMake_64/share/cmake-3.18/Modules/CheckLibraryExists.cmake"
		},
		{
			"isCMake" : true,
			"isExternal" : true,
			"path" : "C:/Qt/Tools/CMake_64/share/cmake-3.18/Modules/CheckIncludeFileCXX.cmake"
		},
		{
			"isCMake" : true,
			"isExternal" : true,
			"path" : "C:/Qt/Tools/CMake_64/share/cmake-3.18/Modules/CheckCXXSourceCompiles.cmake"
		},
		{
			"isCMake" : true,
			"isExternal" : true,
			"path" : "C:/Qt/Tools/CMake_64/share/cmake-3.18/Modules/FindPackageHandleStandardArgs.cmake"
		},
		{
			"isCMake" : true,
			"isExternal" : true,
			"path" : "C:/Qt/Tools/CMake_64/share/cmake-3.18/Modules/FindPackageMessage.cmake"
		},
		{
			"isCMake" : true,
			"isExternal" : true,
			"path" : "C:/Qt/Tools/CMake_64/share/cmake-3.18/Modules/GoogleTest.cmake"
		}
	],
	"kind" : "cmakeFiles",
	"paths" : 
	{
		"build" : "C:/Users/camil/Desktop/Programmazione e calcolo scientifico/exercise/exercises/2_OOPS/Exercise_2/C++",
		"source" : "C:/Users/camil/Desktop/Programmazione e calcolo scientifico/exercise/exercises/2_OOPS/Exercise_2/C++"
	},
	"version" : 
	{
		"major" : 1,
		"minor" : 0
	}
}
